
The following have been reloaded with a version change:
  1) binutils/2.25-GCC-4.9.3-binutils-2.25 => binutils/2.25

Loading required package: Matrix
Loading required package: foreach
Loaded glmnet 2.0-13

Loading required package: lattice
Loading required package: ggplot2
Warning messages:
1: In cor(pred, newy, method = method, use = use) :
  the standard deviation is zero
2: In cor(pred, newy, method = method, use = use) :
  the standard deviation is zero
