----------------------------------------------------
[INFO] Starting imputation
[INFO] Trait: cytokines: IL1b_S.aureus_WB_48h
[INFO] QTL p-value: 5e-05
----------------------------------------------------
WARNING: unknown gui '/groups/umcg-wijmenga/tmp04/umcg-tspenkelink/imputation/data/500FG_to_200FG_dosage_500FG_samples.txt', using none

[INFO]	----------------------------------------------------
[INFO]	READING DATA
[INFO]	Reading genotype data from: /groups/umcg-wijmenga/tmp04/umcg-tspenkelink/imputation/data/500FG_to_200FG_dosage_500FG_samples.txt...
[INFO]	Reading genotype data: done!
[INFO]	Reading immune phenotype data from: /groups/umcg-wijmenga/tmp04/umcg-tspenkelink/imputation/data/500FG/imputation_database/cytokines/cytokines_data.txt...
[INFO]	Reading immune phenotype data: done!
[INFO]	Output Path: /groups/umcg-wijmenga/tmp04/umcg-tspenkelink/imputation/output/solo_genetics_500FG_to_200FG/cytokines
[INFO]	Kfold set to: 10
[INFO]	Nfold set to: 10
[INFO]	QTL p-value set to: 5e-05
[INFO]	Reading qtl data from: /groups/umcg-wijmenga/tmp04/umcg-tspenkelink/imputation/data/500FG/imputation_database/cytokines/cytokines_summary_stat.txt...
[INFO]	Reading qtl data: done!
[INFO]	READING DATA: DONE!
[INFO]	----------------------------------------------------
[INFO]	PRE-PROCESSING
[INFO]	Pre-processing genotype data...
[INFO]	Extracting SNPs present in QTL input...
[1] 482 416
[1] 482 416
[INFO]	Pre-processing immune trait data...
[INFO]	PRE-PROCESSING: DONE!
[INFO]	----------------------------------------------------
[INFO]	CREATING MODEL 1 OUT OF 10 FOR: IL1b_S.aureus_WB_48h
[INFO]	SAVING MODEL FOR: IL1b_S.aureus_WB_48h
[INFO]	DONE!
[INFO]	----------------------------------------------------
[INFO]	CREATING MODEL 2 OUT OF 10 FOR: IL1b_S.aureus_WB_48h
[INFO]	SAVING MODEL FOR: IL1b_S.aureus_WB_48h
[INFO]	DONE!
[INFO]	----------------------------------------------------
[INFO]	CREATING MODEL 3 OUT OF 10 FOR: IL1b_S.aureus_WB_48h
[INFO]	SAVING MODEL FOR: IL1b_S.aureus_WB_48h
[INFO]	DONE!
[INFO]	----------------------------------------------------
[INFO]	CREATING MODEL 4 OUT OF 10 FOR: IL1b_S.aureus_WB_48h
[INFO]	SAVING MODEL FOR: IL1b_S.aureus_WB_48h
[INFO]	DONE!
[INFO]	----------------------------------------------------
[INFO]	CREATING MODEL 5 OUT OF 10 FOR: IL1b_S.aureus_WB_48h
[INFO]	SAVING MODEL FOR: IL1b_S.aureus_WB_48h
[INFO]	DONE!
[INFO]	----------------------------------------------------
[INFO]	CREATING MODEL 6 OUT OF 10 FOR: IL1b_S.aureus_WB_48h
[INFO]	SAVING MODEL FOR: IL1b_S.aureus_WB_48h
[INFO]	DONE!
[INFO]	----------------------------------------------------
[INFO]	CREATING MODEL 7 OUT OF 10 FOR: IL1b_S.aureus_WB_48h
[INFO]	SAVING MODEL FOR: IL1b_S.aureus_WB_48h
[INFO]	DONE!
[INFO]	----------------------------------------------------
[INFO]	CREATING MODEL 8 OUT OF 10 FOR: IL1b_S.aureus_WB_48h
[INFO]	SAVING MODEL FOR: IL1b_S.aureus_WB_48h
[INFO]	DONE!
[INFO]	----------------------------------------------------
[INFO]	CREATING MODEL 9 OUT OF 10 FOR: IL1b_S.aureus_WB_48h
[INFO]	SAVING MODEL FOR: IL1b_S.aureus_WB_48h
[INFO]	DONE!
[INFO]	----------------------------------------------------
[INFO]	CREATING MODEL 10 OUT OF 10 FOR: IL1b_S.aureus_WB_48h
[INFO]	SAVING MODEL FOR: IL1b_S.aureus_WB_48h
[INFO]	DONE!
----------------------------------------------------
[INFO] Imputation done
----------------------------------------------------
#################################################################################################################
# Job details recorded by SLURM job epilog using sacct.                                                         #
#################################################################################################################
Resources consumed by job 4344951 for user umcg-tspenkelink running on compute node umcg-node011:
================================================================================================================
JobID          Elapsed   AllocCPUS  AveCPU    ReqMem  MaxVMSize  MaxRSS     MaxDiskRead  MaxDiskWrite
4344951.batch  00:45:28  1          00:44:14  50Gn    37761076K  34370682K  18M          9M
#################################################################################################################
