
The following have been reloaded with a version change:
  1) binutils/2.25-GCC-4.9.3-binutils-2.25 => binutils/2.25

Loading required package: Matrix
Loading required package: foreach
Loaded glmnet 2.0-13

Loading required package: lattice
Loading required package: ggplot2
Error in glmnet(x, y, weights = weights, offset = offset, lambda = lambda,  : 
  x should be a matrix with 2 or more columns
Calls: cv.glmnet.wrapper ... lapply -> FUN -> glmnet.wrapper -> cv.glmnet -> glmnet
Execution halted
