
The following have been reloaded with a version change:
  1) binutils/2.25-GCC-4.9.3-binutils-2.25 => binutils/2.25

Loading required package: Matrix
Loading required package: foreach
Loaded glmnet 2.0-13

Loading required package: lattice
Loading required package: ggplot2
Warning messages:
1: from glmnet Fortran code (error code -97); Convergence for 97th lambda value not reached after maxit=100000 iterations; solutions for larger lambdas returned 
2: from glmnet Fortran code (error code -94); Convergence for 94th lambda value not reached after maxit=100000 iterations; solutions for larger lambdas returned 
3: from glmnet Fortran code (error code -98); Convergence for 98th lambda value not reached after maxit=100000 iterations; solutions for larger lambdas returned 
