
The following have been reloaded with a version change:
  1) binutils/2.25-GCC-4.9.3-binutils-2.25 => binutils/2.25

Loading required package: Matrix
Loading required package: foreach
Loaded glmnet 2.0-13

Loading required package: lattice
Loading required package: ggplot2
/var/spool/slurmd/job4350293/slurm_script: line 29: 53319 Killed                  Rscript /groups/umcg-wijmenga/tmp04/umcg-tspenkelink/imputation/scripts/R/Imputation.R -g /groups/umcg-wijmenga/tmp04/umcg-tspenkelink/imputation/data/500FG_to_200FG_dosage_500FG_samples.txt -i /groups/umcg-wijmenga/tmp04/umcg-tspenkelink/imputation/data/500FG/imputation_database/"$1"/"$1"_data.txt -q /groups/umcg-wijmenga/tmp04/umcg-tspenkelink/imputation/data/500FG/imputation_database/"$1"/"$1"_summary_stat.txt -o /groups/umcg-wijmenga/tmp04/umcg-tspenkelink/imputation/output/solo_genetics_500FG_to_200FG/"$1" -t "$2" -p "$3" -n 1 -k 10
slurmstepd: Exceeded step memory limit at some point.
