----------------------------------------------------
[INFO] Starting imputation
[INFO] Trait: cytokines: IL6_S.typhimurium_macroPG_24h
[INFO] QTL p-value: 5e-04
----------------------------------------------------
WARNING: unknown gui '/groups/umcg-wijmenga/tmp04/umcg-tspenkelink/imputation/data/500FG_to_200FG_dosage_500FG_samples.txt', using none

[INFO]	----------------------------------------------------
[INFO]	READING DATA
[INFO]	Reading genotype data from: /groups/umcg-wijmenga/tmp04/umcg-tspenkelink/imputation/data/500FG_to_200FG_dosage_500FG_samples.txt...
[INFO]	Reading genotype data: done!
[INFO]	Reading immune phenotype data from: /groups/umcg-wijmenga/tmp04/umcg-tspenkelink/imputation/data/500FG/imputation_database/cytokines/cytokines_data.txt...
[INFO]	Reading immune phenotype data: done!
[INFO]	Output Path: /groups/umcg-wijmenga/tmp04/umcg-tspenkelink/imputation/output/solo_genetics_500FG_to_200FG/cytokines
[INFO]	Kfold set to: 10
[INFO]	Nfold set to: 1
[INFO]	QTL p-value set to: 5e-04
[INFO]	Reading qtl data from: /groups/umcg-wijmenga/tmp04/umcg-tspenkelink/imputation/data/500FG/imputation_database/cytokines/cytokines_summary_stat.txt...
[INFO]	Reading qtl data: done!
[INFO]	READING DATA: DONE!
[INFO]	----------------------------------------------------
[INFO]	PRE-PROCESSING
[INFO]	Pre-processing genotype data...
[INFO]	Extracting SNPs present in QTL input...
[1]  482 2084
[1]  482 2084
[INFO]	Pre-processing immune trait data...
[INFO]	PRE-PROCESSING: DONE!
[INFO]	----------------------------------------------------
[INFO]	CREATING MODEL 1 OUT OF 1 FOR: IL6_S.typhimurium_macroPG_24h
----------------------------------------------------
[INFO] Imputation done
----------------------------------------------------
#################################################################################################################
# Job details recorded by SLURM job epilog using sacct.                                                         #
#################################################################################################################
Resources consumed by job 4350233 for user umcg-tspenkelink running on compute node umcg-node011:
================================================================================================================
JobID          Elapsed   AllocCPUS  AveCPU  ReqMem  MaxVMSize  MaxRSS  MaxDiskRead  MaxDiskWrite
4350233.batch  00:18:38  1          30Gn
#################################################################################################################
